alabaster==0.7.12
anaconda-client==1.7.2
anaconda-navigator==1.9.12
anaconda-project==0.8.3
appdirs==1.4.4
argh==0.26.2
asn1crypto==1.3.0
astroid
astropy==4.0.1.post1
atomicwrites==1.4.0
attrs==19.3.0
audioread==2.1.8
autopep8
Babel==2.8.0
backcall==0.2.0
backports.functools-lru-cache==1.6.1
backports.shutil-get-terminal-size==1.0.0
backports.tempfile==1.0
backports.weakref==1.0.post1
beautifulsoup4==4.9.1
bitarray
bkcharts==0.2
bleach==3.1.5
bokeh
boto==2.49.0
Bottleneck==1.3.2
brotlipy==0.7.0
certifi==2020.6.20
cffi==1.14.0
chardet==3.0.4
click==7.1.2
cloudpickle
clyent==1.2.2
colorama==0.4.3
conda==4.9.2
conda-build==3.18.11
conda-package-handling==1.7.0
conda-verify==3.4.2
contextlib2==0.6.0.post1
cryptography==2.9.2
cycler==0.10.0
Cython
cytoolz==0.10.1
dask
decorator==4.4.2
defusedxml==0.6.0
diff-match-patch
distributed
docutils==0.16
entrypoints==0.3
et-xmlfile==1.0.1
fastcache==1.1.0
filelock==3.0.12
flake8==3.8.3
Flask==1.1.2
fsspec==0.7.4
future==0.18.2
gevent
glob2==0.7
gmpy2==2.0.8
greenlet==0.4.16
h5py==2.10.0
HeapDict==1.0.1
helpdev==0.7.1
html5lib
idna
imageio
imagesize==1.2.0
importlib-metadata
intervaltree
ipykernel
ipython
ipython-genutils==0.2.0
ipywidgets==7.5.1
isort==4.3.21
itsdangerous==1.1.0
jdcal==1.4.1
jedi
jeepney==0.4.3
Jinja2==2.11.2
joblib
json5==0.9.5
jsonschema==3.2.0
jupyter==1.0.0
jupyter-client
jupyter-console==6.1.0
jupyter-core==4.6.3
jupyterlab==2.1.5
jupyterlab-server
keyring
kiwisolver==1.2.0
lazy-object-proxy==1.4.3
libarchive-c==2.9
librosa==0.8.0
llvmlite==0.33.0+1.g022ab0f
locket==0.2.0
lxml
MarkupSafe==1.1.1
matplotlib
mccabe==0.6.1
mistune==0.8.4
mkl-fft==1.1.0
mkl-random==1.1.1
mkl-service==2.3.0
mock==4.0.2
more-itertools==8.4.0
mpmath==1.1.0
msgpack==1.0.0
multipledispatch==0.6.0
navigator-updater==0.2.1
nbconvert==5.6.1
nbformat==5.0.7
networkx
nltk
nose==1.3.7
notebook==6.0.3
numba==0.50.1
numexpr==2.7.1
numpy==1.18.5
numpydoc
olefile==0.46
openpyxl
packaging==20.4
pandas
pandocfilters==1.4.2
parso==0.7.0
partd==1.1.0
path==13.1.0
pathlib2==2.3.5
pathtools==0.1.2
patsy==0.5.1
pep8==1.7.1
pexpect==4.8.0
pickleshare==0.7.5
Pillow
pkginfo==1.5.0.1
pluggy==0.13.1
ply==3.11
pooch==1.2.0
prometheus-client==0.8.0
prompt-toolkit==3.0.5
psutil==5.7.0
ptyprocess==0.6.0
py
pycodestyle==2.6.0
pycosat==0.6.3
pycparser
pycurl==7.43.0.5
pydocstyle
pydub==0.24.1
pyflakes==2.2.0
Pygments==2.6.1
pylint
pyodbc===4.0.0-unsupported
pyOpenSSL
pyparsing==2.4.7
PyQt5==5.12.3
PyQt5-sip==12.8.1
PyQtWebEngine==5.12.1
pyrsistent==0.16.0
PySocks==1.7.1
pytest==5.4.3
python-dateutil==2.8.1
python-jsonrpc-server
python-language-server
python-speech-features==0.6
pytz==2020.1
PyWavelets==1.1.1
pyxdg==0.26
PyYAML==5.3.1
pyzmq==19.0.1
QDarkStyle==2.8.1
QtAwesome==0.7.2
qtconsole
QtPy==1.9.0
regex
requests
resampy==0.2.2
rope==0.17.0
Rtree==0.9.4
ruamel-yaml==0.15.87
scikit-image==0.16.2
scikit-learn
scipy
seaborn==0.10.1
SecretStorage==3.1.2
Send2Trash==1.5.0
simplegeneric==0.8.1
singledispatch==3.4.0.3
sip==4.19.13
six==1.15.0
snowballstemmer==2.0.0
sortedcollections==1.2.1
sortedcontainers==2.2.2
SoundFile==0.10.3.post1
soupsieve==2.0.1
Sphinx
sphinxcontrib-applehelp==1.0.2
sphinxcontrib-devhelp==1.0.2
sphinxcontrib-htmlhelp==1.0.3
sphinxcontrib-jsmath==1.0.1
sphinxcontrib-qthelp==1.0.3
sphinxcontrib-serializinghtml==1.1.4
sphinxcontrib-websupport
spyder
spyder-kernels
SQLAlchemy
statsmodels==0.11.1
sympy
tables==3.6.1
tblib==1.6.0
terminado==0.8.3
testpath==0.4.4
threadpoolctl
toml
toolz==0.10.0
tornado==6.0.4
tqdm
traitlets==4.3.3
typing-extensions
ujson==1.35
unicodecsv==0.14.1
urllib3==1.25.9
watchdog
wcwidth
webencodings==0.5.1
Werkzeug==1.0.1
widgetsnbextension==3.5.1
wrapt==1.11.2
wurlitzer
xlrd==1.2.0
XlsxWriter==1.2.9
xlwt==1.3.0
xmltodict==0.12.0
yapf
zict==2.0.0
zipp==3.1.0
zope.event==4.4
zope.interface==4.7.1
